# Do not change tags in here without changing every other reference to them.
# If adding new technology, make sure they are uniquely named.


# Groups must be defined BEFORE tables.

#Nation Designer Cost is set to match triggers for starting institutions.

groups = {
	#Cannorian, the most diverse group and not really race-tied, though overwhelmingly human - other races can reform to this if their primary culture provinces < non-primary
	tech_cannorian = {	
		start_level = 3
		start_cost_modifier = 0
		nation_designer_cost = {
			trigger = {
				capital_scope = {
					OR = {
						continent = new_world		#Will need to be updated, this looks like capitals shouldnt be on these continents
						continent = north_america
						continent = south_america
						continent = oceania
					}
				}
			}
			value = 75
		}
	}
	#dwarves can see provinces nearby but non-dwarves cant see dwarven regions in Serpentspine
	tech_dwarven = {
		start_level = 3
		start_cost_modifier = 0
		nation_designer_cost = {
			trigger = {
				capital_scope = {
					OR = {
						continent = new_world
						continent = north_america
						continent = south_america
						continent = oceania
					}
				}
			}
			value = 75
		}
	}
	
	#Elves
	tech_elven = {
		start_level = 3
		start_cost_modifier = 0
		nation_designer_cost = {
			trigger = {
				capital_scope = {
					OR = {
						continent = new_world
						continent = north_america
						continent = south_america
						continent = oceania
					}
				}
			}
			value = 75
		}
	}
	
	tech_east_elven = {
		start_level = 3
		start_cost_modifier = 0
		nation_designer_cost = {
			trigger = {
				capital_scope = {
					OR = {
						continent = new_world
						continent = north_america
						continent = south_america
						continent = oceania
					}
				}
			}
			value = 75
		}
	}
	
	tech_wood_elf = {
		start_level = 2
		start_cost_modifier = 0
		nation_designer_cost = {
			trigger = {
				capital_scope = {
					OR = {
						continent = new_world
						continent = north_america
						continent = south_america
						continent = oceania
					}
				}
			}
			value = 75
		}
	}
	
	#Gnomes
	tech_gnomish = {
		start_level = 3
		start_cost_modifier = 0
		nation_designer_cost = {
			trigger = {
				capital_scope = {
					OR = {
						continent = new_world
						continent = north_america
						continent = south_america
						continent = oceania
					}
				}
			}
			value = 75
		}
	}
	#dunno about this maybe just keep salahadesi for southern humans
	tech_bulwari = {
		start_level = 3
		start_cost_modifier = 0.25
		nation_designer_cost = {
			trigger = {
				capital_scope = {
					OR = {
						continent = new_world
						continent = north_america
						continent = south_america
						continent = oceania
					}
				}
			}
			value = 75
		}
	}
	#for southern humans
	tech_salahadesi = {
		start_level = 3
		start_cost_modifier = 0.40
		nation_designer_cost = {
			trigger = {
				capital_scope = {
					OR = {
						continent = new_world
						continent = north_america
						continent = south_america
						continent = oceania
					}
				}
			}
			value = 75
		}
	}
	#Harimari tech
	tech_harimari = {
		start_level = 3
		start_cost_modifier = 0.5
		nation_designer_cost = {
			trigger = {
				capital_scope = {
					OR = {
						continent = new_world
						continent = north_america
						continent = south_america
						continent = oceania
					}
				}
			}
			value = 75
		}
	}
	#Rahen Humans
	tech_raheni = {
		start_level = 3
		start_cost_modifier = 0.5
		nation_designer_cost = {
			trigger = {
				capital_scope = {
					OR = {
						continent = new_world
						continent = north_america
						continent = south_america
						continent = oceania
					}
				}
			}
			value = 75
		}
	}
	#Hobgoblin tech
	tech_hobgoblin = {
		start_level = 3
		start_cost_modifier = 0.5
		nation_designer_cost = {
			trigger = {
				capital_scope = {
					OR = {
						continent = new_world
						continent = north_america
						continent = south_america
						continent = oceania
					}
				}
			}
			value = 75
		}
	}
	#Haless Humans
	tech_essanese = {
		start_level = 3
		start_cost_modifier = 0.5
		nation_designer_cost = {
			trigger = {
				capital_scope = {
					OR = {
						continent = new_world
						continent = north_america
						continent = south_america
						continent = oceania
					}
				}
			}
			value = 75
		}
	}
	#Gnolls
	tech_gnollish = {
		start_level = 2
		start_cost_modifier = 0.75
		nation_designer_cost = {
			trigger = {
				capital_scope = {
					OR = {
						continent = new_world
						continent = north_america
						continent = south_america
						continent = oceania
					}
				}
			}
			value = 75
		}
	}
	#Kobolds
	tech_kobold = {
		start_level = 2
		start_cost_modifier = 0.75
		nation_designer_cost = {
			trigger = {
				capital_scope = {
					OR = {
						continent = new_world
						continent = north_america
						continent = south_america
						continent = oceania
					}
				}
			}
			value = 75
		}
	}
	#Harpies
	tech_harpy = {
		start_level = 3
		start_cost_modifier = 0.75
		nation_designer_cost = {
			trigger = {
				capital_scope = {
					OR = {
						continent = new_world
						continent = north_america
						continent = south_america
						continent = oceania
					}
				}
			}
			value = 75
		}
	}
	#Orcs
	tech_orcish = {
		start_level = 2
		start_cost_modifier = 0.75
		nation_designer_cost = {
			trigger = {
				capital_scope = {
					OR = {
						continent = new_world
						continent = north_america
						continent = south_america
						continent = oceania
					}
				}
			}
			value = 75
		}
	}
	#Goblins
	tech_goblin = {
		start_level = 2
		start_cost_modifier = 0.75
		nation_designer_cost = {
			trigger = {
				capital_scope = {
					OR = {
						continent = new_world
						continent = north_america
						continent = south_america
						continent = oceania
					}
				}
			}
			value = 75
		}
	}
	#Giantkind
	tech_giantkind = {
		start_level = 2
		start_cost_modifier = 0.75
		nation_designer_cost = {
			trigger = {
				capital_scope = {
					OR = {
						continent = new_world
						continent = north_america
						continent = south_america
						continent = oceania
					}
				}
			}
			value = 75
		}
	}
	#Ruinborn
	tech_north_aelantiri = {
		start_level = 1
		start_cost_modifier = 2.5
		is_primitive = yes
	}
	tech_south_aelantiri = {
		start_level = 1
		start_cost_modifier = 2.5
		is_primitive = yes
	}
	tech_effelai = {
		start_level = 1
		start_cost_modifier = 2.5
		is_primitive = yes
	}
	tech_eordand = {
		start_level = 3
		start_cost_modifier = 0
	}
	tech_ynnic = {
		start_level = 3
		start_cost_modifier = 0
	}
	tech_kheionai = {
		start_level = 3
		start_cost_modifier = 0
	}
	tech_taychendi = {
		start_level = 3
		start_cost_modifier = 0
	}
	tech_centaur = {
		start_level = 2
		start_cost_modifier = 0
	}
	tech_west_sarhaly = {
		start_level = 1
		start_cost_modifier = 0
	}
	tech_central_sarhaly = {
		start_level = 1
		start_cost_modifier = 0
	}
	tech_east_sarhaly = {
		start_level = 1
		start_cost_modifier = 0
	}
	tech_lizardfolk = {
		start_level = 1
		start_cost_modifier = 0
	}
	tech_vyzemby = {
		start_level = 1
		start_cost_modifier = 0
	}
	#Undead
	tech_undead = {
		start_level = 2
		start_cost_modifier = 0.75
		nation_designer_cost = {
			trigger = {
				capital_scope = {
					OR = {
						continent = new_world
						continent = north_america
						continent = south_america
						continent = oceania
					}
				}
			}
			value = 75
		}
	}
	
	#Vanilla
	western = {
		start_level = 3
		start_cost_modifier = 0
		nation_designer_cost = {
			trigger = {
				capital_scope = {
					OR = {
						continent = new_world
						continent = north_america
						continent = south_america
						continent = oceania
					}
				}
			}
			value = 75
		}
	}
	eastern = {
		start_level = 3
		start_cost_modifier = 0.20
		nation_designer_cost = {
			trigger = {
				capital_scope = {
					OR = {
						continent = new_world
						continent = north_america
						continent = south_america
						continent = oceania
					}
				}
			}
			value = 75
		}
	}
	ottoman = {
		start_level = 3
		start_cost_modifier = 0.25
		nation_designer_cost = {
			trigger = {
				capital_scope = {
					OR = {
						continent = new_world
						continent = north_america
						continent = south_america
						continent = oceania
					}
				}
			}
			value = 75
		}
	}
	muslim = {
		start_level = 3
		start_cost_modifier = 0.40
		nation_designer_cost = {
			trigger = {
				capital_scope = {
					OR = {
						continent = new_world
						continent = north_america
						continent = south_america
						continent = oceania
					}
				}
			}
			value = 75
		}
	}
	indian = {
		start_level = 3
		start_cost_modifier = 0.5
		nation_designer_cost = {
			trigger = {
				capital_scope = {
					OR = {
						continent = new_world
						continent = north_america
						continent = south_america
						continent = oceania
					}
				}
			}
			value = 75
		}
	}
	east_african = {
		start_level = 3
		start_cost_modifier = 0.5
		nation_designer_unit_type = sub_saharan
	}
	central_african = {
		start_level = 2
		start_cost_modifier = 0.65
		nation_designer_unit_type = sub_saharan
	}
	chinese = {
		start_level = 3
		start_cost_modifier = 0.6
		nation_designer_cost = {
			trigger = {
				capital_scope = {
					OR = {
						continent = new_world
						continent = north_america
						continent = south_america
						continent = oceania
					}
				}
			}
			value = 75
		}
	}
	nomad_group = {
		start_level = 3
		start_cost_modifier = 0.75
		nation_designer_trigger = {
			has_reform = steppe_horde
		}
	}
	sub_saharan = { #West African
		start_level = 2
		start_cost_modifier = 0.6
	}
	north_american = {
		start_level = 1
		start_cost_modifier = 2.5
		is_primitive = yes
	}
	mesoamerican = {
		start_level = 1
		start_cost_modifier = 1.5
		is_primitive = yes
	}
	south_american = {
		start_level = 1
		start_cost_modifier = 2.5
		is_primitive = yes
	}
	andean = {
		start_level = 1
		start_cost_modifier = 1.5
		nation_designer_unit_type = south_american
		is_primitive = yes
	}	
	
	
	high_american = {
		start_level = 3
		start_cost_modifier = 0
		nation_designer_unit_type = high_american
		nation_designer_trigger = {
			NOT = {
				capital_scope = {
					continent = europe
				}
			}
		}
		nation_designer_cost = {
			trigger = {
				capital_scope = {
					OR = {
						continent = new_world
						continent = north_america
						continent = south_america
						continent = oceania
					}
				}
			}
			value = 75
		}
	}
}

tables = {
	adm_tech = "technologies/adm.txt"
	dip_tech = "technologies/dip.txt"
	mil_tech = "technologies/mil.txt"
}
