#118 - Roma

owner = A03
controller = A03
add_core = A03
culture = moon_elf
religion = regent_court
hre = no
base_tax = 5
base_production = 6
trade_goods = grain
base_manpower = 4
capital = ""
is_city = yes







