#411 - Irmathmas

owner = A48
controller = A48
add_core = A48
add_core = A56
culture = arannese
religion = regent_court

hre = yes

base_tax = 4
base_production = 3
base_manpower = 2

trade_goods = fish

capital = ""

is_city = yes











add_nationalism = 10