# No previous file for Bermuda

owner = F09
controller = F09
add_core = F09
add_core = F01
culture = kheteratan
religion = khetist

hre = no

base_tax = 3
base_production = 3
base_manpower = 2

trade_goods = livestock

capital = ""

is_city = yes



